{
    "status":"connected",
    "authResponse":{
        "accessToken":"EAAaI0heI3JsBAPa9mtEPlKZCFIpHSZCO6vkSwSCuHh4pANxMZCw02PXEfHrSM8pcdMFMr0wZB881L50eJglg8z5jHjHHPVl5jreWQ8INkFigY5RRxS94fPaD903aQyTvLpb4JgTpRBQ0kUDKZBxm6lMkkvYLZCwYZAyhyv4ZAZC1qUq18E2x01YqUoIYBsBHwtJmHSh1QtXafZBx3gM15YQvD6",
        "expiresIn":"5168180",
        "session_key":true,
        "sig":"...",
        "userID":"1381164415257473"
        }
}